adder/dump.vcd
$date
	Mon Mar 17 16:00:32 2025
$end
$version
	QuestaSim Version 10.6b
$end
$timescale
	1ns
$end

$scope module uvm_root $end
$upscope $end

$scope module tb $end
$upscope $end

$scope begin uvm_pkg $end
$var parameter 32 ! UVM_HDL_MAX_WIDTH $end
$var parameter 32 " UVM_STREAMBITS $end
$var parameter 32 # UVM_RADIX $end
$var parameter 32 $ UVM_MACRO_NUMFLAGS $end
$var parameter 32 % UVM_DEFAULT $end
$var parameter 32 & UVM_ALL_ON $end
$var parameter 32 ' UVM_FLAGS_ON $end
$var parameter 32 ( UVM_FLAGS_OFF $end
$var parameter 32 ) UVM_COPY $end
$var parameter 32 * UVM_NOCOPY $end
$var parameter 32 + UVM_COMPARE $end
$var parameter 32 , UVM_NOCOMPARE $end
$var parameter 32 - UVM_PRINT $end
$var parameter 32 . UVM_NOPRINT $end
$var parameter 32 / UVM_RECORD $end
$var parameter 32 0 UVM_NORECORD $end
$var parameter 32 1 UVM_PACK $end
$var parameter 32 2 UVM_NOPACK $end
$var parameter 32 3 UVM_PHYSICAL $end
$var parameter 32 4 UVM_ABSTRACT $end
$var parameter 32 5 UVM_READONLY $end
$var parameter 32 6 UVM_NODEFPRINT $end
$var parameter 32 7 UVM_MACRO_EXTRAS $end
$var parameter 32 8 UVM_FLAGS $end
$var parameter 32 9 UVM_UNPACK $end
$var parameter 32 : UVM_CHECK_FIELDS $end
$var parameter 32 ; UVM_END_DATA_EXTRA $end
$var parameter 32 < UVM_START_FUNCS $end
$var parameter 32 = UVM_SET $end
$var parameter 32 > UVM_SETINT $end
$var parameter 32 ? UVM_SETOBJ $end
$var parameter 32 @ UVM_SETSTR $end
$var parameter 32 A UVM_END_FUNCS $end
$var parameter 32 B UVM_STR_CRC_POLYNOMIAL $end
$var parameter 32 C UVM_STDOUT $end
$var parameter 32 D UVM_LINE_WIDTH $end
$var parameter 32 E UVM_NUM_LINES $end
$var parameter 32 F UVM_SMALL_STRING $end
$var parameter 32 G UVM_LARGE_STRING $end
$var reg 1 H uvm_start_uvm_declarations $end
$var integer 32 I uvm_global_random_seed $end
$var integer 32 J UVM_UNBOUNDED_CONNECTIONS $end

$scope function uvm_hdl_check_path $end
$var integer 32 K uvm_hdl_check_path $end
$upscope $end

$scope function uvm_hdl_deposit $end
$var integer 32 L uvm_hdl_deposit $end
$var reg 1024 M value [1023:0] $end
$upscope $end

$scope function uvm_hdl_force $end
$var integer 32 N uvm_hdl_force $end
$var reg 1024 O value [1023:0] $end
$upscope $end

$scope task uvm_hdl_force_time $end
$var reg 1024 P value [1023:0] $end
$var time 64 Q force_time $end
$upscope $end

$scope function uvm_hdl_release_and_read $end
$var integer 32 R uvm_hdl_release_and_read $end
$var reg 1024 S value [1023:0] $end
$upscope $end

$scope function uvm_hdl_release $end
$var integer 32 T uvm_hdl_release $end
$upscope $end

$scope function uvm_hdl_read $end
$var integer 32 U uvm_hdl_read $end
$var reg 1024 V value [1023:0] $end
$upscope $end

$scope function uvm_dpi_get_next_arg_c $end
$upscope $end

$scope function uvm_dpi_get_tool_name_c $end
$upscope $end

$scope function uvm_dpi_get_tool_version_c $end
$upscope $end

$scope function uvm_dpi_get_next_arg $end
$upscope $end

$scope function uvm_dpi_get_tool_name $end
$upscope $end

$scope function uvm_dpi_get_tool_version $end
$upscope $end

$scope function uvm_dpi_regcomp $end
$upscope $end

$scope function uvm_dpi_regexec $end
$var integer 32 W uvm_dpi_regexec $end
$upscope $end

$scope function uvm_dpi_regfree $end
$upscope $end

$scope function uvm_re_match $end
$var integer 32 X uvm_re_match $end
$upscope $end

$scope function uvm_dump_re_cache $end
$upscope $end

$scope function uvm_glob_to_re $end
$upscope $end

$scope function uvm_revision_string $end
$upscope $end

$scope function uvm_radix_to_string $end
$var integer 32 Y radix $end
$upscope $end

$scope function uvm_instance_scope $end
$var reg 8 Z c [7:0] $end
$var integer 32 [ pos $end
$upscope $end

$scope function uvm_oneway_hash $end
$var integer 32 \ uvm_oneway_hash $end
$var integer 32 ] seed $end
$var reg 1 ^ msb $end
$var reg 8 _ current_byte [7:0] $end
$var reg 32 ` crc1 [31:0] $end
$upscope $end

$scope function uvm_create_random_seed $end
$var integer 32 a uvm_create_random_seed $end
$upscope $end

$scope function uvm_object_value_str $end
$upscope $end

$scope function uvm_leaf_scope $end
$var reg 8 b scope_separator [7:0] $end
$var reg 8 c bracket_match [7:0] $end
$var integer 32 d pos $end
$var integer 32 e bmatches $end
$upscope $end

$scope function uvm_vector_to_string $end
$var reg 4096 f value [4095:0] $end
$var integer 32 g size $end
$var integer 32 h radix $end
$upscope $end

$scope function uvm_get_array_index_int $end
$var integer 32 i uvm_get_array_index_int $end
$var reg 1 j is_wildcard $end
$var integer 32 k i $end
$upscope $end

$scope function uvm_get_array_index_string $end
$var reg 1 l is_wildcard $end
$var integer 32 m i $end
$upscope $end

$scope function uvm_is_array $end
$var reg 1 n uvm_is_array $end
$upscope $end

$scope function uvm_has_wildcard $end
$upscope $end

$scope task run_test $end
$upscope $end

$scope function global_stop_request $end
$upscope $end

$scope function set_global_timeout $end
$var time 64 o timeout $end
$var reg 1 p overridable $end
$upscope $end

$scope function set_global_stop_timeout $end
$var time 64 q timeout $end
$upscope $end

$scope function uvm_report_enabled $end
$var reg 1 r uvm_report_enabled $end
$var integer 32 s verbosity $end
$var reg 2 t severity [1:0] $end
$upscope $end

$scope function uvm_report $end
$var reg 2 u severity [1:0] $end
$var integer 32 v verbosity $end
$var integer 32 w line $end
$upscope $end

$scope function uvm_report_info $end
$var integer 32 x verbosity $end
$var integer 32 y line $end
$upscope $end

$scope function uvm_report_warning $end
$var integer 32 z verbosity $end
$var integer 32 { line $end
$upscope $end

$scope function uvm_report_error $end
$var integer 32 | verbosity $end
$var integer 32 } line $end
$upscope $end

$scope function uvm_report_fatal $end
$var integer 32 ~ verbosity $end
$var integer 32 !! line $end
$upscope $end

$scope function uvm_string_to_severity $end
$var reg 1 "! uvm_string_to_severity $end
$var reg 2 #! sev [1:0] $end
$upscope $end

$scope function uvm_string_to_action $end
$upscope $end

$scope function set_config_int $end
$var reg 4096 $! value [4095:0] $end
$upscope $end

$scope function set_config_object $end
$var reg 1 %! clone $end
$upscope $end

$scope function set_config_string $end
$upscope $end

$scope function uvm_is_match $end
$var reg 1 &! uvm_is_match $end
$upscope $end

$scope function uvm_string_to_bits $end
$var reg 115200 '! uvm_string_to_bits [115199:0] $end
$upscope $end

$scope function uvm_bits_to_string $end
$var reg 115200 (! str [115199:0] $end
$upscope $end

$scope task uvm_wait_for_nba_region $end
$var integer 32 )! nba $end
$var integer 32 *! next_nba $end
$upscope $end

$scope function uvm_split_string $end
$upscope $end

$scope function uvm_hdl_concat2string $end
$upscope $end
$upscope $end

$scope begin tb_sv_unit $end
$upscope $end

$scope begin std $end
$upscope $end

$scope begin questa_uvm_pkg $end
$upscope $end
$enddefinitions $end
#0
$dumpvars
0l
0n
0"!
b0 #!
bx '!
bx (!
bx M
bx O
bx P
bx S
bx V
1H
1^
b1110011 _
b111100010001010010011111011001 `
bx f
0j
0p
0r
b0 t
b0 u
bx $!
0%!
0&!
b10000000000 !
b1000000000000 "
b1111000000000000000000000000 #
b10001 $
b10101010101 %
b101010101 &
b101010101 '
b0 (
b1 )
b10 *
b100 +
b1000 ,
b10000 -
b100000 .
b1000000 /
b10000000 0
b100000000 1
b1000000000 2
b10000000000000 3
b100000000000000 4
b1000000000000000 5
b10000000000000000 6
b100000000000000000 7
b100000000000000001 8
b100000000000000010 9
b100000000000000011 :
b100000000000000100 ;
b100000000000000101 <
b100000000000000110 =
b100000000000000110 >
b100000000000000111 ?
b100000000000001000 @
b100000000000001000 A
b100110000010001110110110110 B
b1 C
b1111000 D
b1111000 E
b1110111111 F
b11100000111111111 G
b0 Y
b0 b
b0 c
b0 d
b0 e
b0 m
b0 K
b0 L
b0 N
b0 R
b0 T
b0 U
b1 W
b0 X
b1101001011000001111100000011110 I
b101110 Z
b111 [
b10010000001110011011001011100001 \
b1101001011000001111100000011110 ]
b11111100011110110111001011100110 a
b0 g
b0 h
b0 i
b0 k
b111110100 s
b0 v
b0 w
b11001000 x
b11011001 y
b0 z
b0 {
b0 |
b0 }
b0 ~
b0 !!
b100100 )!
b100100 *!
b11111111111111111111111111111111 J
bx Q
bx o
bx q
$end
#1
b101110 b
b1010 d
b1001 d
b1000 d
b111 d
b110 d
b101 d
b100 d
b11 d
b10 d
b1 d
b0 d
b1111 f
b100 g
b111000000000000000000000000 h
b1100 d
b1011 d
b11111111111111111111111111111111 e
b101 f
b0 e
b1100 d
b1011 d
b11111111111111111111111111111111 e
b0 e
b1010 d
b1001 d
b1000 d
b111 d
b110 d
b101 d
b100 d
b11 d
b10 d
b1 d
b0 d
b1111 f
b1100 d
b1011 d
b11111111111111111111111111111111 e
b101 f
b0 e
b1100 d
b1011 d
b11111111111111111111111111111111 e
b100101 *!
b100101 )!
b10010000001110011011001011100100 a
#2
b0 e
b1010 d
b1001 d
b1000 d
b111 d
b110 d
b101 d
b100 d
b11 d
b10 d
b1 d
b0 d
b1 f
b1100 d
b1011 d
b11111111111111111111111111111111 e
b100 f
b0 e
b1100 d
b1011 d
b11111111111111111111111111111111 e
b0 e
b1010 d
b1001 d
b1000 d
b111 d
b110 d
b101 d
b100 d
b11 d
b10 d
b1 d
b0 d
b1 f
b1100 d
b1011 d
b11111111111111111111111111111111 e
b100 f
b0 e
b1100 d
b1011 d
b11111111111111111111111111111111 e
b100110 *!
b100110 )!
b10010000001110011011001011100111 a
#3
b0 e
b1010 d
b1001 d
b1000 d
b111 d
b110 d
b101 d
b100 d
b11 d
b10 d
b1 d
b0 d
b11 f
b1100 d
b1011 d
b11111111111111111111111111111111 e
b0 e
b1100 d
b1011 d
b11111111111111111111111111111111 e
b0 e
b1010 d
b1001 d
b1000 d
b111 d
b110 d
b101 d
b100 d
b11 d
b10 d
b1 d
b0 d
b1100 d
b1011 d
b11111111111111111111111111111111 e
b0 e
b1100 d
b1011 d
b11111111111111111111111111111111 e
b100111 *!
b100111 )!
b10010000001110011011001011101011 a
#4
b0 e
b1010 d
b1001 d
b1000 d
b111 d
b110 d
b101 d
b100 d
b11 d
b10 d
b1 d
b0 d
b101 f
b1100 d
b1011 d
b11111111111111111111111111111111 e
b1101 f
b0 e
b1100 d
b1011 d
b11111111111111111111111111111111 e
b0 e
b1010 d
b1001 d
b1000 d
b111 d
b110 d
b101 d
b100 d
b11 d
b10 d
b1 d
b0 d
b101 f
b1100 d
b1011 d
b11111111111111111111111111111111 e
b1101 f
b0 e
b1100 d
b1011 d
b11111111111111111111111111111111 e
b101000 *!
b101000 )!
b10010000001110011011001011110000 a
#5
b0 e
b1010 d
b1001 d
b1000 d
b111 d
b110 d
b101 d
b100 d
b11 d
b10 d
b1 d
b0 d
b110 f
b1100 d
b1011 d
b11111111111111111111111111111111 e
b0 e
b1100 d
b1011 d
b11111111111111111111111111111111 e
b0 e
b1010 d
b1001 d
b1000 d
b111 d
b110 d
b101 d
b100 d
b11 d
b10 d
b1 d
b0 d
b1100 d
b1011 d
b11111111111111111111111111111111 e
b0 e
b1100 d
b1011 d
b11111111111111111111111111111111 e
b101001 *!
b101001 )!
b10010000001110011011001011110110 a
#6
b0 e
b1010 d
b1001 d
b1000 d
b111 d
b110 d
b101 d
b100 d
b11 d
b10 d
b1 d
b0 d
b1110 f
b1100 d
b1011 d
b11111111111111111111111111111111 e
b0 f
b0 e
b1100 d
b1011 d
b11111111111111111111111111111111 e
b0 e
b1010 d
b1001 d
b1000 d
b111 d
b110 d
b101 d
b100 d
b11 d
b10 d
b1 d
b0 d
b1110 f
b1100 d
b1011 d
b11111111111111111111111111111111 e
b0 f
b0 e
b1100 d
b1011 d
b11111111111111111111111111111111 e
b101010 *!
b101010 )!
b10010000001110011011001011111101 a
#7
b0 e
b1010 d
b1001 d
b1000 d
b111 d
b110 d
b101 d
b100 d
b11 d
b10 d
b1 d
b0 d
b111 f
b1100 d
b1011 d
b11111111111111111111111111111111 e
b1 f
b0 e
b1100 d
b1011 d
b11111111111111111111111111111111 e
b0 e
b1010 d
b1001 d
b1000 d
b111 d
b110 d
b101 d
b100 d
b11 d
b10 d
b1 d
b0 d
b111 f
b1100 d
b1011 d
b11111111111111111111111111111111 e
b1 f
b0 e
b1100 d
b1011 d
b11111111111111111111111111111111 e
b101011 *!
b101011 )!
b10010000001110011011001100000101 a
#8
b0 e
b1010 d
b1001 d
b1000 d
b111 d
b110 d
b101 d
b100 d
b11 d
b10 d
b1 d
b0 d
b0 f
b1100 d
b1011 d
b11111111111111111111111111111111 e
b110 f
b0 e
b1100 d
b1011 d
b11111111111111111111111111111111 e
b0 e
b1010 d
b1001 d
b1000 d
b111 d
b110 d
b101 d
b100 d
b11 d
b10 d
b1 d
b0 d
b0 f
b1100 d
b1011 d
b11111111111111111111111111111111 e
b110 f
b0 e
b1100 d
b1011 d
b11111111111111111111111111111111 e
b101100 *!
b101100 )!
b10010000001110011011001100001110 a
#9
b0 e
b1010 d
b1001 d
b1000 d
b111 d
b110 d
b101 d
b100 d
b11 d
b10 d
b1 d
b0 d
b11 f
b1100 d
b1011 d
b11111111111111111111111111111111 e
b10 f
b0 e
b1100 d
b1011 d
b11111111111111111111111111111111 e
b0 e
b1010 d
b1001 d
b1000 d
b111 d
b110 d
b101 d
b100 d
b11 d
b10 d
b1 d
b0 d
b11 f
b1100 d
b1011 d
b11111111111111111111111111111111 e
b10 f
b0 e
b1100 d
b1011 d
b11111111111111111111111111111111 e
b101101 *!
b101101 )!
b101110 *!
b101111 *!
b101110 )!
b101111 )!
b110000 *!
b110001 *!
b110000 )!
b110001 )!
b11111100011110110111001011111000 a
b1111110101101110110010001011100 a
b11101111001001110011100100100000 a
b11101000100010010110011000010111 a
b110100101001010101110101001100 a
b11001010101000111101100010011010 a
b1111110100101010110000110000111 a
b10001000111011110111001100011101 a
b10001101010110100100110100001111 a
b1100111100010011110111011100000 a
b101000100000011001010101111101 a
b1010100000010101101010100111110 a
b11110110111101101011110110100100 a
b10111110110010101111111111111010 a
b11011010001001111100110101100011 a
b10010101000001111001101101111101 a
b10100000100111010000000001000 a
b110001000010010010111111101 a
b1111000101011100001101001100111 a
b101010100100001111111111010011 a
b11101000111010100000011000101111 a
b10101111010011111001000011110111 a
b10100010000010011100111101111010 a
b111000011000110011100110101111 a
b11011100000111001000010000111110 a
b11111100011110110111001100001011 a
b1111110101101110110010001101111 a
b11101111001001110011100100110011 a
b11101000100010010110011000101010 a
b110100101001010101110101011111 a
b11001010101000111101100010101101 a
b1111110100101010110000110011010 a
b10001000111011110111001100110000 a
b10001101010110100100110100100010 a
b1100111100010011110111011110011 a
b101000100000011001010110010000 a
b1010100000010101101010101010001 a
b11110110111101101011110110110111 a
b10111110110010110000000000001101 a
b11011010001001111100110101110110 a
b10010101000001111001101110010000 a
b10100000100111010000000011011 a
b110001000010010011000010000 a
b1111000101011100001101001111010 a
b101010100100001111111111100110 a
b11101000111010100000011001000010 a
b10101111010011111001000100001010 a
b10100010000010011100111110001101 a
b111000011000110011100111000010 a
b11011100000111001000010001010001 a
b11111100011110110111001100011111 a
b1111110101101110110010010000011 a
b11101111001001110011100101000111 a
b11101000100010010110011000111110 a
b110100101001010101110101110011 a
b11001010101000111101100011000001 a
b1111110100101010110000110101110 a
b10001000111011110111001101000100 a
b10001101010110100100110100110110 a
b1100111100010011110111100000111 a
b101000100000011001010110100100 a
b1010100000010101101010101100101 a
b11110110111101101011110111001011 a
b10111110110010110000000000100001 a
b11011010001001111100110110001010 a
b10010101000001111001101110100100 a
b10100000100111010000000101111 a
b110001000010010011000100100 a
b1111000101011100001101010001110 a
b101010100100001111111111111010 a
b11101000111010100000011001010110 a
b10101111010011111001000100011110 a
b10100010000010011100111110100001 a
b111000011000110011100111010110 a
b11011100000111001000010001100101 a
b11011100000111001000010001111010 a
b111000011000110011100111101011 a
b10100010000010011100111110110110 a
b101010100100010000000000001111 a
b11101111001001110011100101011100 a
b11111100011110110111001100110100 a
b1111110101101110110010010011000 a
b110100101001010101110110001000 a
b11101000100010010110011001010011 a
b1111000101011100001101010100011 a
b1100111100010011110111100011100 a
b11001010101000111101100011010110 a
b1111110100101010110000111000011 a
b10001000111011110111001101011001 a
b10001101010110100100110101001011 a
b101000100000011001010110111001 a
b1010100000010101101010101111010 a
b110001000010010011000111001 a
b11110110111101101011110111100000 a
b10111110110010110000000000110110 a
b11011010001001111100110110011111 a
b10010101000001111001101110111001 a
b10100000100111010000001000100 a
b10101111010011111001000100110011 a
b11101000111010100000011001101011 a
